{
    "hash_status_code_1": {
        "message": "не потребує оновлення",
        "description": ""
    },

    "hash_status_code_2": {
        "message": "оновлено",
        "description": ""
    },

    "hash_status_code_3": {
        "message": "наявне оновлення",
        "description": ""
    },

    "hash_status_code_4": {
        "message": "помилка",
        "description": ""
    },

    "hash_status_code_5": {
        "message": "Ой, щось не так!",
        "description": ""
    },

    "log_redirect": {
        "message": "Цей URL перенаправляється",
        "description": ""
    },

    "log_domain_blocked": {
        "message": "Цей домен заблоковано",
        "description": ""
    },

    "check_os_log": {
        "message": "[ClearURLs]: Лог listener додано.",
        "description": ""
    },

    "log_html_page_title": {
        "message": "Лог ClearURLs",
        "description": ""
    },

    "log_html_table_head_1": {
        "message": "Перед обробкою",
        "description": ""
    },

    "log_html_table_head_2": {
        "message": "Після обробки",
        "description": ""
    },

    "log_html_table_head_3": {
        "message": "Правило",
        "description": ""
    },

    "log_html_table_head_4": {
        "message": "Час",
        "description": ""
    },

    "log_html_reset_button": {
        "message": "Скидання",
        "description": ""
    },

    "log_html_reset_button_title": {
        "message": "Скидання глобального логу",
        "description": ""
    },

    "popup_html_configs_head": {
        "message": "Конфігурації",
        "description": ""
    },

    "popup_html_configs_switch_filter": {
        "message": "Фільтр",
        "description": ""
    },

    "popup_html_configs_switch_filter_title": {
        "message": "Цей перемикач активує функцію очищення ClearURLs. Якщо ви вимкнете цю функцію, весь аддон буде вимкнено",
        "description": ""
    },

    "popup_html_configs_switch_log": {
        "message": "Логування",
        "description": ""
    },

    "popup_html_configs_switch_log_title": {
        "message": "Лог зберігається лише локально. Ми радимо не використовувати цю функцію, якщо вона вам не потрібна.",
        "description": ""
    },

    "popup_html_configs_switch_badges": {
        "message": "Значки",
        "description": ""
    },

    "popup_html_configs_switch_badges_title": {
        "message": "Показати кількість очищених URL",
        "description": ""
    },

    "popup_html_statistics_head": {
        "message": "Статистика",
        "description": ""
    },

    "popup_html_statistics_elements": {
        "message": "Елементи",
        "description": ""
    },

    "popup_html_statistics_blocked": {
        "message": "Заблоковано",
        "description": ""
    },

    "popup_html_statistics_percentage": {
        "message": "Відсоток",
        "description": ""
    },

    "popup_html_statistics_reset_button": {
        "message": "Скинути",
        "description": ""
    },

    "popup_html_statistics_reset_button_title": {
        "message": "Скидання глобальної статистики",
        "description": ""
    },

    "popup_html_rules_status_head": {
        "message": "Актуальність правил",
        "description": ""
    },

    "popup_html_log_head": {
        "message": "Лог",
        "description": ""
    },

    "popup_html_log_head_title": {
        "message": "Відкрити лог",
        "description": ""
    },

    "core_save_on_disk": {
        "message": "[ClearURLs]: Зберегти на диск.",
        "description": ""
    },

    "core_error": {
        "message": "[ClearURLs]: Не вдалося запустити аддон.",
        "description": ""
    },

    "configs_switch_statistics": {
        "message": "Статистика",
        "description": ""
    },

    "configs_switch_statistics_title": {
        "message": "Увімк. чи вимк. статистику",
        "description": ""
    },

    "settings_html_page_title": {
        "message": "Налаштування ClearURLs",
        "description": ""
    },

    "badged_color_label": {
        "message": "Колір значка",
        "description": ""
    },

    "setting_html_reset_button": {
        "message": "Скинути",
        "description": ""
    },

    "setting_html_reset_button_title": {
        "message": "Скинути все",
        "description": ""
    },

    "setting_rule_url_label": {
        "message": "Посилання на файл data.json (правила)",
        "description": ""
    },

    "settings_html_save_button": {
        "message": "Зберегти і перезавантажити аддон",
        "description": ""
    },

    "settings_html_save_button_title": {
        "message": "Збереження налаштувань",
        "description": ""
    },

    "setting_hash_url_label": {
        "message": "Посилання на файл rules.hash (хеш)",
        "description": ""
    }
}
